<?xml version="1.0" encoding="UTF-8" standalone="no"?>
<!-- Created with Inkscape (http://www.inkscape.org/) -->

<svg
   xmlns:dc="http://purl.org/dc/elements/1.1/"
   xmlns:cc="http://creativecommons.org/ns#"
   xmlns:rdf="http://www.w3.org/1999/02/22-rdf-syntax-ns#"
   xmlns:svg="http://www.w3.org/2000/svg"
   xmlns="http://www.w3.org/2000/svg"
   xmlns:sodipodi="http://sodipodi.sourceforge.net/DTD/sodipodi-0.dtd"
   xmlns:inkscape="http://www.inkscape.org/namespaces/inkscape"
   width="64px"
   height="64px"
   id="svg3590"
   version="1.1"
   inkscape:version="0.47 r22583"
   sodipodi:docname="1.svg">
  <defs
     id="defs3592">
    <inkscape:perspective
       sodipodi:type="inkscape:persp3d"
       inkscape:vp_x="0 : 32 : 1"
       inkscape:vp_y="0 : 1000 : 0"
       inkscape:vp_z="64 : 32 : 1"
       inkscape:persp3d-origin="32 : 21.333333 : 1"
       id="perspective3598" />
  </defs>
  <sodipodi:namedview
     id="base"
     pagecolor="#ffffff"
     bordercolor="#666666"
     borderopacity="1.0"
     inkscape:pageopacity="0.0"
     inkscape:pageshadow="2"
     inkscape:zoom="5.5"
     inkscape:cx="20.2561"
     inkscape:cy="39.250511"
     inkscape:current-layer="layer1"
     showgrid="true"
     inkscape:document-units="px"
     inkscape:grid-bbox="true"
     inkscape:window-width="1280"
     inkscape:window-height="752"
     inkscape:window-x="0"
     inkscape:window-y="0"
     inkscape:window-maximized="0" />
  <metadata
     id="metadata3595">
    <rdf:RDF>
      <cc:Work
         rdf:about="">
        <dc:format>image/svg+xml</dc:format>
        <dc:type
           rdf:resource="http://purl.org/dc/dcmitype/StillImage" />
        <dc:title></dc:title>
      </cc:Work>
    </rdf:RDF>
  </metadata>
  <g
     id="layer1"
     inkscape:label="Layer 1"
     inkscape:groupmode="layer">
    <rect
       style="fill:#333333;fill-opacity:1;fill-rule:nonzero;stroke:none;stroke-width:2.60000000000000009;stroke-linejoin:miter;stroke-miterlimit:4;stroke-opacity:1;stroke-dasharray:none"
       id="rect3600"
       width="74"
       height="73.090912"
       x="-5.2727275"
       y="-4.181818"
       rx="4.2548413"
       ry="6.9356861" />
    <path
       sodipodi:type="arc"
       style="fill:#4d4d4d;fill-opacity:1;fill-rule:nonzero;stroke:none"
       id="path4114"
       sodipodi:cx="13.727273"
       sodipodi:cy="31.272728"
       sodipodi:rx="8.272727"
       sodipodi:ry="7.6363635"
       d="m 22,31.272728 a 8.272727,7.6363635 0 1 1 -16.545454,0 8.272727,7.6363635 0 1 1 16.545454,0 z"
       transform="translate(29.272726,-6.3636363)" />
    <path
       sodipodi:type="arc"
       style="fill:#1a1a1a;fill-opacity:1;fill-rule:nonzero;stroke:none"
       id="path4116"
       sodipodi:cx="36.090908"
       sodipodi:cy="52.545456"
       sodipodi:rx="2.8181818"
       sodipodi:ry="2.7272727"
       d="m 38.90909,52.545456 a 2.8181818,2.7272727 0 1 1 -5.636364,0 2.8181818,2.7272727 0 1 1 5.636364,0 z"
       transform="matrix(2.7741936,0,0,2.6666666,-72.486803,-106.66666)" />
    <path
       sodipodi:type="arc"
       style="fill:#b3b3b3;fill-opacity:1;fill-rule:nonzero;stroke:none"
       id="path4118"
       sodipodi:cx="45"
       sodipodi:cy="20.545454"
       sodipodi:rx="11.181818"
       sodipodi:ry="10.727273"
       d="m 56.181818,20.545454 a 11.181818,10.727273 0 1 1 -22.363636,0 11.181818,10.727273 0 1 1 22.363636,0 z"
       transform="matrix(0.21951219,0,0,0.23728816,6.7583154,7.4884424)" />
    <path
       sodipodi:type="arc"
       style="fill:#999999;fill-opacity:1;fill-rule:nonzero;stroke:none"
       id="path4120"
       sodipodi:cx="16.09091"
       sodipodi:cy="53.636364"
       sodipodi:rx="2.8181818"
       sodipodi:ry="2.7272727"
       d="m 18.909092,53.636364 a 2.8181818,2.7272727 0 1 1 -5.636364,0 2.8181818,2.7272727 0 1 1 5.636364,0 z"
       transform="matrix(2.6129033,0,0,2.4333333,-8.4985357,-77.878788)" />
  </g>
</svg>
