<?xml version="1.0" encoding="UTF-8" standalone="no"?>
<!-- Created with Inkscape (http://www.inkscape.org/) -->

<svg
   xmlns:dc="http://purl.org/dc/elements/1.1/"
   xmlns:cc="http://creativecommons.org/ns#"
   xmlns:rdf="http://www.w3.org/1999/02/22-rdf-syntax-ns#"
   xmlns:svg="http://www.w3.org/2000/svg"
   xmlns="http://www.w3.org/2000/svg"
   xmlns:xlink="http://www.w3.org/1999/xlink"
   xmlns:sodipodi="http://sodipodi.sourceforge.net/DTD/sodipodi-0.dtd"
   xmlns:inkscape="http://www.inkscape.org/namespaces/inkscape"
   width="1100"
   height="600"
   id="svg2"
   version="1.1"
   inkscape:version="0.47 r22583"
   sodipodi:docname="bg_booze.svg"
   inkscape:export-filename="/Users/adamerb/dev/gj2014/resource/images/bg_booze/bg_booze.png"
   inkscape:export-xdpi="90"
   inkscape:export-ydpi="90">
  <defs
     id="defs4">
    <linearGradient
       id="linearGradient4329">
      <stop
         style="stop-color:#4b2d01;stop-opacity:1;"
         offset="0"
         id="stop4331" />
      <stop
         style="stop-color:#ffedc8;stop-opacity:1;"
         offset="1"
         id="stop4333" />
    </linearGradient>
    <inkscape:perspective
       sodipodi:type="inkscape:persp3d"
       inkscape:vp_x="0 : 526.18109 : 1"
       inkscape:vp_y="0 : 1000 : 0"
       inkscape:vp_z="744.09448 : 526.18109 : 1"
       inkscape:persp3d-origin="372.04724 : 350.78739 : 1"
       id="perspective10" />
    <filter
       inkscape:collect="always"
       id="filter3626"
       x="-0.53261232"
       width="2.0652246"
       y="-0.66810137"
       height="2.3362029"
       color-interpolation-filters="sRGB">
      <feGaussianBlur
         inkscape:collect="always"
         stdDeviation="45.335453"
         id="feGaussianBlur3628" />
    </filter>
    <linearGradient
       inkscape:collect="always"
       xlink:href="#linearGradient4329"
       id="linearGradient4335"
       x1="-80"
       y1="758.07645"
       x2="1167.1428"
       y2="758.07645"
       gradientUnits="userSpaceOnUse" />
    <filter
       inkscape:collect="always"
       id="filter4351"
       x="-0.11928571"
       width="1.2385714"
       y="-0.12072289"
       height="1.2414458">
      <feGaussianBlur
         inkscape:collect="always"
         stdDeviation="5.9642857"
         id="feGaussianBlur4353" />
    </filter>
    <filter
       inkscape:collect="always"
       id="filter4362"
       x="-0.23096157"
       width="1.4619231"
       y="-0.082732508"
       height="1.165465">
      <feGaussianBlur
         inkscape:collect="always"
         stdDeviation="16.497255"
         id="feGaussianBlur4364" />
    </filter>
    <filter
       inkscape:collect="always"
       id="filter4366"
       x="-0.056478808"
       width="1.1129576"
       y="-0.15676676"
       height="1.3135335">
      <feGaussianBlur
         inkscape:collect="always"
         stdDeviation="16.497255"
         id="feGaussianBlur4368" />
    </filter>
    <filter
       inkscape:collect="always"
       id="filter4370"
       x="-0.062768339"
       width="1.1255367"
       y="-0.11130978"
       height="1.2226196">
      <feGaussianBlur
         inkscape:collect="always"
         stdDeviation="23.019961"
         id="feGaussianBlur4372" />
    </filter>
  </defs>
  <sodipodi:namedview
     id="base"
     pagecolor="#ffffff"
     bordercolor="#666666"
     borderopacity="1.0"
     inkscape:pageopacity="0.0"
     inkscape:pageshadow="2"
     inkscape:zoom="0.7"
     inkscape:cx="408.49051"
     inkscape:cy="169.40316"
     inkscape:document-units="px"
     inkscape:current-layer="layer1"
     showgrid="false"
     inkscape:window-width="1280"
     inkscape:window-height="752"
     inkscape:window-x="0"
     inkscape:window-y="0"
     inkscape:window-maximized="0" />
  <metadata
     id="metadata7">
    <rdf:RDF>
      <cc:Work
         rdf:about="">
        <dc:format>image/svg+xml</dc:format>
        <dc:type
           rdf:resource="http://purl.org/dc/dcmitype/StillImage" />
        <dc:title />
      </cc:Work>
    </rdf:RDF>
  </metadata>
  <g
     inkscape:label="Layer 1"
     inkscape:groupmode="layer"
     id="layer1"
     transform="translate(0,-452.36218)">
    <rect
       style="fill:url(#linearGradient4335);fill-opacity:1;fill-rule:nonzero;stroke:none"
       id="rect3815"
       width="1247.1428"
       height="662.85712"
       x="-80"
       y="426.64789"
       ry="3.0302527" />
    <path
       style="fill:#333333;fill-opacity:1;fill-rule:nonzero;stroke:#000000;stroke-width:5.88600016000000004;stroke-linejoin:miter;stroke-miterlimit:4;stroke-opacity:1;stroke-dasharray:none;filter:url(#filter4366)"
       d="m 663.83914,783.64834 c -0.6473,0 -1.1875,3.98651 -1.1875,8.90625 l 0,148.68745 -278.78125,0 0,-138.5937 c 0,-4.91974 -0.5402,-8.875 -1.1875,-8.875 l -72.40625,0 c -0.6473,0 -1.15625,3.95526 -1.15625,8.875 l 0,180.21874 c 0,4.9198 0.50895,8.875 1.15625,8.875 l 57.40625,0 0,13.34382 c 0,4.9197 0.5402,8.875 1.1875,8.875 l 293.78125,0 0,3.25 c 0,4.9197 0.5402,8.875 1.1875,8.875 l 113.96875,0 0,1.2187 c 0,4.9198 0.5402,8.9063 1.1875,8.9063 l 230.00011,0 c 0.6472,0 1.1562,-3.9865 1.1562,-8.9063 l 0,-147.87501 c 0,-4.91974 -0.509,-8.90625 -1.1562,-8.90625 l -200.87511,0 0,-77.96875 c 0,-4.91974 -0.50895,-8.90625 -1.15625,-8.90625 l -143.125,0 z"
       id="rect3655" />
    <path
       style="fill:#666666;fill-opacity:1;fill-rule:nonzero;stroke:#000000;stroke-width:5.88571810000000006;stroke-linejoin:miter;stroke-miterlimit:4;stroke-opacity:1;stroke-dasharray:none;filter:url(#filter4370)"
       d="m 257.37947,559.07573 c -1.16735,0 -2.09375,3.94382 -2.09375,8.84375 l 0,387.3125 -43.84375,0 0,-191.125 c 0,-4.91974 -0.5402,-8.875 -1.1875,-8.875 l -183.375004,0 c -0.6473,0 -1.15625,3.95526 -1.15625,8.875 l 0,282.21872 c 0,4.9197 0.50895,8.9062 1.15625,8.9062 l 148.562504,0 34.8125,0 239.03125,0 c 0.0803,0.1136 0.16439,0.1875 0.25,0.1875 l 455.21877,0 c 0.6479,0 1.1562,-3.4041 1.1562,-7.6562 l 0,-182.21872 c 0,-4.25214 -0.5083,-7.6875 -1.1562,-7.6875 l -50.4688,0 0,-148.03125 c 0,-4.91974 -0.5089,-8.90625 -1.1562,-8.90625 l -40.53127,0 c -0.6473,0 -1.15625,3.98651 -1.15625,8.90625 l 0,148.03125 -361.90625,0 c -0.64788,0 -1.15625,3.43536 -1.15625,7.6875 l 0,89.6875 -43.65625,0 0,-387.3125 c 0,-4.89993 -0.95765,-8.84375 -2.125,-8.84375 l -145.21875,0 z"
       id="rect2816"
       transform="matrix(0.59173809,0,0,0.86793002,-48.007436,121.67621)"
       inkscape:export-xdpi="90"
       inkscape:export-ydpi="90"
       inkscape:export-filename="/Users/adamerb/dev/gj2014/svg/sober_bg.png" />
    <path
       sodipodi:type="arc"
       style="fill:#ff0000;fill-opacity:1;fill-rule:nonzero;stroke:none;filter:url(#filter3626)"
       id="path2828"
       sodipodi:cx="-23.571428"
       sodipodi:cy="524.28571"
       sodipodi:rx="102.14285"
       sodipodi:ry="81.428574"
       d="m 78.571424,524.28571 c 0,44.97175 -45.730912,81.42857 -102.142852,81.42857 -56.41194,0 -102.142852,-36.45682 -102.142852,-81.42857 0,-44.97176 45.730912,-81.42858 102.142852,-81.42858 56.41194,0 102.142852,36.45682 102.142852,81.42858 z"
       transform="translate(7.142857,480.9336)" />
    <path
       transform="translate(687.14286,533.79075)"
       d="m 78.571424,524.28571 c 0,44.97175 -45.730912,81.42857 -102.142852,81.42857 -56.41194,0 -102.142852,-36.45682 -102.142852,-81.42857 0,-44.97176 45.730912,-81.42858 102.142852,-81.42858 56.41194,0 102.142852,36.45682 102.142852,81.42858 z"
       sodipodi:ry="81.428574"
       sodipodi:rx="102.14285"
       sodipodi:cy="524.28571"
       sodipodi:cx="-23.571428"
       id="path3632"
       style="fill:#ff0000;fill-opacity:1;fill-rule:nonzero;stroke:none;filter:url(#filter3626)"
       sodipodi:type="arc" />
    <path
       sodipodi:type="arc"
       style="fill:#ff0000;fill-opacity:1;fill-rule:nonzero;stroke:none;filter:url(#filter3626)"
       id="path3634"
       sodipodi:cx="-23.571428"
       sodipodi:cy="524.28571"
       sodipodi:rx="102.14285"
       sodipodi:ry="81.428574"
       d="m 78.571424,524.28571 c 0,44.97175 -45.730912,81.42857 -102.142852,81.42857 -56.41194,0 -102.142852,-36.45682 -102.142852,-81.42857 0,-44.97176 45.730912,-81.42858 102.142852,-81.42858 56.41194,0 102.142852,36.45682 102.142852,81.42858 z"
       transform="translate(968.57143,519.50504)" />
    <rect
       style="fill:#686868;fill-opacity:1;fill-rule:nonzero;stroke:none;filter:url(#filter4362)"
       id="rect3650"
       width="171.42857"
       height="478.57141"
       x="947.14282"
       y="148.57143"
       transform="translate(0,452.36218)"
       rx="2.6560068"
       ry="5.0892134" />
    <path
       sodipodi:type="arc"
       style="opacity:0.43621401;fill:#ffffff;fill-opacity:1;fill-rule:nonzero;stroke:none;filter:url(#filter4351)"
       id="path4349"
       sodipodi:cx="-91.428574"
       sodipodi:cy="283.57144"
       sodipodi:rx="60"
       sodipodi:ry="59.285713"
       d="m -31.428574,283.57144 a 60,59.285713 0 1 1 -119.999996,0 60,59.285713 0 1 1 119.999996,0 z"
       transform="matrix(0.5770857,0,0,0.52445653,931.33355,497.92702)" />
    <path
       transform="matrix(1.0672817,0,0,0.98059005,746.86576,566.43771)"
       d="m -31.428574,283.57144 a 60,59.285713 0 1 1 -119.999996,0 60,59.285713 0 1 1 119.999996,0 z"
       sodipodi:ry="59.285713"
       sodipodi:rx="60"
       sodipodi:cy="283.57144"
       sodipodi:cx="-91.428574"
       id="path4355"
       style="opacity:0.43621401;fill:#ffffff;fill-opacity:1;fill-rule:nonzero;stroke:none;filter:url(#filter4351)"
       sodipodi:type="arc" />
    <path
       sodipodi:type="arc"
       style="opacity:0.43621401;fill:#ffffff;fill-opacity:1;fill-rule:nonzero;stroke:none;filter:url(#filter4351)"
       id="path4357"
       sodipodi:cx="-91.428574"
       sodipodi:cy="283.57144"
       sodipodi:rx="60"
       sodipodi:ry="59.285713"
       d="m -31.428574,283.57144 a 60,59.285713 0 1 1 -119.999996,0 60,59.285713 0 1 1 119.999996,0 z"
       transform="matrix(0.75009608,0,0,0.74767081,798.58021,495.3441)" />
    <path
       sodipodi:type="arc"
       style="opacity:0.43621401;fill:#ffffff;fill-opacity:1;fill-rule:nonzero;stroke:none;filter:url(#filter4351)"
       id="path4359"
       sodipodi:cx="-91.428574"
       sodipodi:cy="283.57144"
       sodipodi:rx="60"
       sodipodi:ry="59.285713"
       d="m -31.428574,283.57144 a 60,59.285713 0 1 1 -119.999996,0 60,59.285713 0 1 1 119.999996,0 z"
       transform="matrix(1.4421376,0,0,1.3687889,558.99544,526.35562)" />
  </g>
</svg>
