<?xml version="1.0" encoding="UTF-8" standalone="no"?>
<!-- Created with Inkscape (http://www.inkscape.org/) -->

<svg
   xmlns:dc="http://purl.org/dc/elements/1.1/"
   xmlns:cc="http://creativecommons.org/ns#"
   xmlns:rdf="http://www.w3.org/1999/02/22-rdf-syntax-ns#"
   xmlns:svg="http://www.w3.org/2000/svg"
   xmlns="http://www.w3.org/2000/svg"
   xmlns:xlink="http://www.w3.org/1999/xlink"
   xmlns:sodipodi="http://sodipodi.sourceforge.net/DTD/sodipodi-0.dtd"
   xmlns:inkscape="http://www.inkscape.org/namespaces/inkscape"
   width="100"
   height="64"
   id="svg2816"
   version="1.1"
   inkscape:version="0.47 r22583"
   sodipodi:docname="pointy_things.svg"
   inkscape:export-filename="/Users/adamerb/dev/gj2014/resource/images/pointy_things/pointy_things.png"
   inkscape:export-xdpi="90"
   inkscape:export-ydpi="90">
  <defs
     id="defs2818">
    <linearGradient
       id="linearGradient3603">
      <stop
         style="stop-color:#717171;stop-opacity:1;"
         offset="0"
         id="stop3605" />
      <stop
         style="stop-color:#eaeaea;stop-opacity:1;"
         offset="1"
         id="stop3607" />
    </linearGradient>
    <inkscape:perspective
       sodipodi:type="inkscape:persp3d"
       inkscape:vp_x="0 : 32 : 1"
       inkscape:vp_y="0 : 1000 : 0"
       inkscape:vp_z="64 : 32 : 1"
       inkscape:persp3d-origin="32 : 21.333333 : 1"
       id="perspective2824" />
    <linearGradient
       inkscape:collect="always"
       xlink:href="#linearGradient3603"
       id="linearGradient3609"
       x1="9.28125"
       y1="44.71655"
       x2="23.65625"
       y2="44.71655"
       gradientUnits="userSpaceOnUse"
       gradientTransform="matrix(1.0004581,0,0,0.92738878,-2.3381957,5.0440505)" />
    <linearGradient
       inkscape:collect="always"
       xlink:href="#linearGradient3603"
       id="linearGradient3613"
       gradientUnits="userSpaceOnUse"
       gradientTransform="matrix(1.0004581,0,0,0.92738878,15.66913,3.851754)"
       x1="9.28125"
       y1="44.71655"
       x2="23.65625"
       y2="44.71655" />
    <linearGradient
       inkscape:collect="always"
       xlink:href="#linearGradient3603"
       id="linearGradient3617"
       gradientUnits="userSpaceOnUse"
       gradientTransform="matrix(1.0004581,0,0,0.92738878,34.190954,4.5671322)"
       x1="9.28125"
       y1="44.71655"
       x2="23.65625"
       y2="44.71655" />
    <linearGradient
       inkscape:collect="always"
       xlink:href="#linearGradient3603"
       id="linearGradient3621"
       gradientUnits="userSpaceOnUse"
       gradientTransform="matrix(1.0004581,0,0,0.92738878,51.683785,4.5671322)"
       x1="9.28125"
       y1="44.71655"
       x2="23.65625"
       y2="44.71655" />
    <linearGradient
       inkscape:collect="always"
       xlink:href="#linearGradient3603"
       id="linearGradient3625"
       gradientUnits="userSpaceOnUse"
       gradientTransform="matrix(1.0004581,0,0,0.92738878,69.948359,4.8055913)"
       x1="9.28125"
       y1="44.71655"
       x2="23.65625"
       y2="44.71655" />
    <linearGradient
       inkscape:collect="always"
       xlink:href="#linearGradient3603"
       id="linearGradient2855"
       gradientUnits="userSpaceOnUse"
       gradientTransform="matrix(1.0004581,0,0,0.92738878,-2.3381957,5.0440505)"
       x1="9.28125"
       y1="44.71655"
       x2="23.65625"
       y2="44.71655" />
    <linearGradient
       inkscape:collect="always"
       xlink:href="#linearGradient3603"
       id="linearGradient2857"
       gradientUnits="userSpaceOnUse"
       gradientTransform="matrix(1.0004581,0,0,0.92738878,15.66913,3.851754)"
       x1="9.28125"
       y1="44.71655"
       x2="23.65625"
       y2="44.71655" />
    <linearGradient
       inkscape:collect="always"
       xlink:href="#linearGradient3603"
       id="linearGradient2859"
       gradientUnits="userSpaceOnUse"
       gradientTransform="matrix(1.0004581,0,0,0.92738878,34.190954,4.5671322)"
       x1="9.28125"
       y1="44.71655"
       x2="23.65625"
       y2="44.71655" />
    <linearGradient
       inkscape:collect="always"
       xlink:href="#linearGradient3603"
       id="linearGradient2861"
       gradientUnits="userSpaceOnUse"
       gradientTransform="matrix(1.0004581,0,0,0.92738878,51.683785,4.5671322)"
       x1="9.28125"
       y1="44.71655"
       x2="23.65625"
       y2="44.71655" />
    <linearGradient
       inkscape:collect="always"
       xlink:href="#linearGradient3603"
       id="linearGradient2863"
       gradientUnits="userSpaceOnUse"
       gradientTransform="matrix(1.0004581,0,0,0.92738878,69.948359,4.8055913)"
       x1="9.28125"
       y1="44.71655"
       x2="23.65625"
       y2="44.71655" />
    <linearGradient
       inkscape:collect="always"
       xlink:href="#linearGradient3603"
       id="linearGradient2865"
       gradientUnits="userSpaceOnUse"
       gradientTransform="matrix(1.0004581,0,0,0.92738878,-2.3381957,5.0440505)"
       x1="9.28125"
       y1="44.71655"
       x2="23.65625"
       y2="44.71655" />
    <linearGradient
       inkscape:collect="always"
       xlink:href="#linearGradient3603"
       id="linearGradient2867"
       gradientUnits="userSpaceOnUse"
       gradientTransform="matrix(1.0004581,0,0,0.92738878,15.66913,3.851754)"
       x1="9.28125"
       y1="44.71655"
       x2="23.65625"
       y2="44.71655" />
    <linearGradient
       inkscape:collect="always"
       xlink:href="#linearGradient3603"
       id="linearGradient2869"
       gradientUnits="userSpaceOnUse"
       gradientTransform="matrix(1.0004581,0,0,0.92738878,34.190954,4.5671322)"
       x1="9.28125"
       y1="44.71655"
       x2="23.65625"
       y2="44.71655" />
    <linearGradient
       inkscape:collect="always"
       xlink:href="#linearGradient3603"
       id="linearGradient2871"
       gradientUnits="userSpaceOnUse"
       gradientTransform="matrix(1.0004581,0,0,0.92738878,51.683785,4.5671322)"
       x1="9.28125"
       y1="44.71655"
       x2="23.65625"
       y2="44.71655" />
    <linearGradient
       inkscape:collect="always"
       xlink:href="#linearGradient3603"
       id="linearGradient2873"
       gradientUnits="userSpaceOnUse"
       gradientTransform="matrix(1.0004581,0,0,0.92738878,69.948359,4.8055913)"
       x1="9.28125"
       y1="44.71655"
       x2="23.65625"
       y2="44.71655" />
  </defs>
  <sodipodi:namedview
     id="base"
     pagecolor="#ffffff"
     bordercolor="#666666"
     borderopacity="1.0"
     inkscape:pageopacity="0.0"
     inkscape:pageshadow="2"
     inkscape:zoom="3.8890873"
     inkscape:cx="9.9069527"
     inkscape:cy="11.802215"
     inkscape:current-layer="layer1"
     showgrid="true"
     inkscape:document-units="px"
     inkscape:grid-bbox="true"
     inkscape:window-width="1280"
     inkscape:window-height="752"
     inkscape:window-x="0"
     inkscape:window-y="0"
     inkscape:window-maximized="1" />
  <metadata
     id="metadata2821">
    <rdf:RDF>
      <cc:Work
         rdf:about="">
        <dc:format>image/svg+xml</dc:format>
        <dc:type
           rdf:resource="http://purl.org/dc/dcmitype/StillImage" />
        <dc:title />
      </cc:Work>
    </rdf:RDF>
  </metadata>
  <g
     id="layer1"
     inkscape:label="Layer 1"
     inkscape:groupmode="layer">
    <g
       id="g2836"
       transform="matrix(0.99966245,0,0,1.0355722,-1.2687238,-0.05606871)">
      <path
         sodipodi:nodetypes="cccc"
         id="path2828"
         d="m 6.6757924,33.648197 7.1935246,25.730958 6.959346,-25.730958 -14.1528706,0 z"
         style="fill:url(#linearGradient2865);fill-opacity:1;stroke:#000000;stroke-width:0.96323079px;stroke-linecap:butt;stroke-linejoin:miter;stroke-opacity:1" />
      <path
         style="fill:url(#linearGradient2867);fill-opacity:1;stroke:#000000;stroke-width:0.96323079px;stroke-linecap:butt;stroke-linejoin:miter;stroke-opacity:1"
         d="m 24.683119,32.4559 7.193526,25.730959 6.959345,-25.730959 -14.152871,0 z"
         id="path3611"
         sodipodi:nodetypes="cccc" />
      <path
         sodipodi:nodetypes="cccc"
         id="path3615"
         d="m 43.20494,33.171278 7.193526,25.730958 6.959343,-25.730958 -14.152869,0 z"
         style="fill:url(#linearGradient2869);fill-opacity:1;stroke:#000000;stroke-width:0.96323079px;stroke-linecap:butt;stroke-linejoin:miter;stroke-opacity:1" />
      <path
         style="fill:url(#linearGradient2871);fill-opacity:1;stroke:#000000;stroke-width:0.96323079px;stroke-linecap:butt;stroke-linejoin:miter;stroke-opacity:1"
         d="m 60.697773,33.171278 7.193525,25.730958 6.959344,-25.730958 -14.152869,0 z"
         id="path3619"
         sodipodi:nodetypes="cccc" />
      <path
         sodipodi:nodetypes="cccc"
         id="path3623"
         d="m 78.962345,33.409737 7.193526,25.730959 6.959346,-25.730959 -14.152872,0 z"
         style="fill:url(#linearGradient2873);fill-opacity:1;stroke:#000000;stroke-width:0.96323079px;stroke-linecap:butt;stroke-linejoin:miter;stroke-opacity:1" />
    </g>
    <g
       id="g2843"
       transform="matrix(0.99966245,0,0,-1.0355722,-1.0116809,63.092594)">
      <path
         style="fill:url(#linearGradient2855);fill-opacity:1;stroke:#000000;stroke-width:0.96323079px;stroke-linecap:butt;stroke-linejoin:miter;stroke-opacity:1"
         d="m 6.6757924,33.648197 7.1935246,25.730958 6.959346,-25.730958 -14.1528706,0 z"
         id="path2845"
         sodipodi:nodetypes="cccc" />
      <path
         sodipodi:nodetypes="cccc"
         id="path2847"
         d="m 24.683119,32.4559 7.193526,25.730959 6.959345,-25.730959 -14.152871,0 z"
         style="fill:url(#linearGradient2857);fill-opacity:1;stroke:#000000;stroke-width:0.96323079px;stroke-linecap:butt;stroke-linejoin:miter;stroke-opacity:1" />
      <path
         style="fill:url(#linearGradient2859);fill-opacity:1;stroke:#000000;stroke-width:0.96323079px;stroke-linecap:butt;stroke-linejoin:miter;stroke-opacity:1"
         d="m 43.20494,33.171278 7.193526,25.730958 6.959343,-25.730958 -14.152869,0 z"
         id="path2849"
         sodipodi:nodetypes="cccc" />
      <path
         sodipodi:nodetypes="cccc"
         id="path2851"
         d="m 60.697773,33.171278 7.193525,25.730958 6.959344,-25.730958 -14.152869,0 z"
         style="fill:url(#linearGradient2861);fill-opacity:1;stroke:#000000;stroke-width:0.96323079px;stroke-linecap:butt;stroke-linejoin:miter;stroke-opacity:1" />
      <path
         style="fill:url(#linearGradient2863);fill-opacity:1;stroke:#000000;stroke-width:0.96323079px;stroke-linecap:butt;stroke-linejoin:miter;stroke-opacity:1"
         d="m 78.962345,33.409737 7.193526,25.730959 6.959346,-25.730959 -14.152872,0 z"
         id="path2853"
         sodipodi:nodetypes="cccc" />
    </g>
    <rect
       style="fill:#393939;fill-opacity:1;fill-rule:nonzero;stroke:#000000;stroke-width:1.82822609;stroke-linejoin:miter;stroke-miterlimit:4;stroke-opacity:1;stroke-dasharray:none"
       id="rect2826"
       width="92.906258"
       height="14.684349"
       x="2.4015219"
       y="24.206572"
       rx="2.1866889"
       ry="1.9104383" />
  </g>
</svg>
